{
com.badlogic.gdx.graphics.g2d.BitmapFont: { default-font: { file: font/default.fnt } },
com.badlogic.gdx.graphics.Color: {
green: { a: 1, b: 0, g: 1, r: 0 },
white: { a: 1, b: 1, g: 1, r: 1 },
red: { a: 1, b: 0, g: 0, r: 1 },
black: { a: 1, b: 0, g: 0, r: 0 }
},
com.badlogic.gdx.graphics.g2d.BitmapFont: {
white64: { file: font/white64.fnt }, 
black64: { file: font/black64.fnt },
white32: { file: font/white32.fnt },
black32: { file: font/black32.fnt }
},
com.badlogic.gdx.scenes.scene2d.ui.Label$LabelStyle: {
small: { font: white64, fontColor: white },
default:   { font: white32, fontColor: white }
},
com.badlogic.gdx.scenes.scene2d.ui.ImageButton$ImageButtonStyle:{
deal_up: {up: deal-up},
deal_down: {up: deal-down},
draw_up: {up: draw-up},
draw_down: {up: draw-down},
cashout_up: {up:cashout-up},
cashout_down: {up:cashout-down},
total_bet1: {up:total-meter},
total_bet2: {up:total-meter},
win_a: {up:win-meter},
win_b: {up:win-meter},
cash_a: {up:cash-meter},
cash_b: {up:cash-meter},
menu_down: {up:menu-down},
menu_up: {up:menu-up},
help_down: {up:help-down},
help_up: {up:help-up},
poker_pride: {up:poker-logo},
lines_up: {up:line-up},
lines_down: {down:line-up},
bonus_down: {up: gamble-up},
bonus_up: {up: gamble-down},
gamble_down: {up: gamble-up},
gamble_up: {up: gamble-down},
spin_up: {up:spin-up},
spin_down: {up:spin-down},
back_up: {up:back-up},
back_down: {up:back-down},
},
}
